Introduction to SomaScan.db • SomaScan.db
…
## Warning: You have selected the following columns that can have a many to
##   one relationship with the primary key: UNIPROT, ENSEMBL, GO,
##   PATH, IPI . Because you have selected more than a few such
##   columns there is a risk that this selection may balloon up into
##   a very large result as the number of rows returned multiplies
##   accordingly. To experience smaller/more manageable results and
##   faster retrieval times, you might want to consider selecting
##   these columns separately.

## 'select()' returned 1:many mapping between keys and columns

## # A tibble: 26 × 8
##    PROBEID UNIPROT ENSEMBL         GO        EVIDENCE ONTOLOGY PATH  IPI  
##    <chr>   <chr>   <chr>           <chr>     <chr>    <chr>    <chr> <chr>
##  1 9123-18 Q8N350  ENSG00000099625 GO:00058… IBA      CC       NA    IPI0…
##  2 9123-18 Q8N350  ENSG00000099625 GO:00058… IBA      CC       NA    IPI0…
##  3 9123-18 Q8N350  ENSG00000099625 GO:00058… ISS      CC       NA    IPI0…
##  4 9123-18 Q8N350  ENSG00000099625 GO:00058… ISS      CC       NA    IPI0…
##  5 9123-18 Q8N350  ENSG00000099625 GO:00301… IBA      CC       NA    IPI0…
##  6 9123-18 Q8N350  ENSG00000099625 GO:00301… IBA      CC       NA    IPI0…
##  7 9123-18 Q8N350  ENSG00000099625 GO:00301… ISS      CC       NA    IPI0…
##  8 9123-18 Q8N350  ENSG00000099625 GO:00301… ISS      CC       NA    IPI0…
##  9 9123-18 Q8N350  ENSG00000099625 GO:00304… ISS      CC       NA    IPI0…
## 10 9123-18 Q8N350  ENSG00000099625 GO:00304… ISS      CC       NA    IPI0…
## # ℹ 16 more rows
…
